[gd_scene load_steps=3 format=2]

[ext_resource path="res://script/Column.gd" type="Script" id=1]
[ext_resource path="res://Icon.tscn" type="PackedScene" id=2]

[node name="Column" type="Control" groups=[
"column_group",
]]
script = ExtResource( 1 )
__meta__ = {
"_edit_use_anchors_": false
}
Icon = ExtResource( 2 )
