[gd_scene load_steps=5 format=2]

[ext_resource path="res://assets/image/board_lvl_1.png" type="Texture" id=1]
[ext_resource path="res://script/Game.gd" type="Script" id=2]
[ext_resource path="res://Column.tscn" type="PackedScene" id=3]
[ext_resource path="res://assets/image/bg_lvl_1.png" type="Texture" id=4]

[node name="Game" type="Control"]
anchor_right = 1.0
anchor_bottom = 1.0
script = ExtResource( 2 )
__meta__ = {
"_edit_use_anchors_": false
}
Column = ExtResource( 3 )

[node name="Bg" type="TextureRect" parent="."]
anchor_right = 1.0
anchor_bottom = 1.0
texture = ExtResource( 4 )
expand = true
stretch_mode = 7
__meta__ = {
"_edit_use_anchors_": false
}

[node name="BoardBg" type="TextureRect" parent="."]
anchor_left = 0.5
anchor_top = 0.5
anchor_right = 0.5
anchor_bottom = 0.5
margin_left = -402.0
margin_top = -248.0
margin_right = 402.0
margin_bottom = 248.0
texture = ExtResource( 1 )
__meta__ = {
"_edit_use_anchors_": false
}

[node name="Board" type="Control" parent="."]
anchor_left = 0.5
anchor_top = 0.5
anchor_right = 0.5
anchor_bottom = 0.5
margin_left = -20.0
margin_top = -20.0
margin_right = 20.0
margin_bottom = 20.0
rect_clip_content = true
